module testingcharm

go 1.21.4

require (
	github.com/alecthomas/chroma v0.10.0 // indirect
	github.com/atotto/clipboard v0.1.4 // indirect
	github.com/aymanbagabas/go-osc52/v2 v2.0.1 // indirect
	github.com/aymerick/douceur v0.2.0 // indirect
	github.com/catppuccin/go v0.2.0 // indirect
	github.com/charmbracelet/bubbles v0.17.1 // indirect
	github.com/charmbracelet/bubbletea v0.25.0 // indirect
	github.com/charmbracelet/glamour v0.6.0 // indirect
	github.com/charmbracelet/huh v0.2.3 // indirect
	github.com/charmbracelet/lipgloss v0.9.1 // indirect
	github.com/charmbracelet/log v0.3.1 // indirect
	github.com/containerd/console v1.0.4-0.20230313162750-1ae8d489ac81 // indirect
	github.com/dlclark/regexp2 v1.10.0 // indirect
	github.com/go-logfmt/logfmt v0.6.0 // indirect
	github.com/gorilla/css v1.0.0 // indirect
	github.com/lucasb-eyer/go-colorful v1.2.0 // indirect
	github.com/mattn/go-isatty v0.0.20 // indirect
	github.com/mattn/go-localereader v0.0.1 // indirect
	github.com/mattn/go-runewidth v0.0.15 // indirect
	github.com/microcosm-cc/bluemonday v1.0.25 // indirect
	github.com/muesli/ansi v0.0.0-20230316100256-276c6243b2f6 // indirect
	github.com/muesli/cancelreader v0.2.2 // indirect
	github.com/muesli/reflow v0.3.0 // indirect
	github.com/muesli/termenv v0.15.2 // indirect
	github.com/olekukonko/tablewriter v0.0.5 // indirect
	github.com/rivo/uniseg v0.4.4 // indirect
	github.com/yuin/goldmark v1.6.0 // indirect
	github.com/yuin/goldmark-emoji v1.0.2 // indirect
	golang.org/x/exp v0.0.0-20231006140011-7918f672742d // indirect
	golang.org/x/net v0.17.0 // indirect
	golang.org/x/sync v0.4.0 // indirect
	golang.org/x/sys v0.13.0 // indirect
	golang.org/x/term v0.13.0 // indirect
	golang.org/x/text v0.13.0 // indirect
)
